ALU_sin_automatizar/simulation/qsim/ALU_sin_automatizar.msim.vcd
$comment
	File created using the following command:
		vcd file ALU_sin_automatizar.msim.vcd -direction
$end
$date
	Sun Mar 05 12:49:30 2023
$end
$version
	ModelSim Version 10.5b
$end
$timescale
	1ps
$end

$scope module alu_vhd_vec_tst $end
$var wire 1 ! a [2] $end
$var wire 1 " a [1] $end
$var wire 1 # a [0] $end
$var wire 1 $ b [2] $end
$var wire 1 % b [1] $end
$var wire 1 & b [0] $end
$var wire 1 ' cin $end
$var wire 1 ( cout $end
$var wire 1 ) salida_final [2] $end
$var wire 1 * salida_final [1] $end
$var wire 1 + salida_final [0] $end
$var wire 1 , sel [1] $end
$var wire 1 - sel [0] $end
$var wire 1 . seleccion_ALU $end

$scope module i1 $end
$var wire 1 / gnd $end
$var wire 1 0 vcc $end
$var wire 1 1 unknown $end
$var wire 1 2 devoe $end
$var wire 1 3 devclrn $end
$var wire 1 4 devpor $end
$var wire 1 5 ww_devoe $end
$var wire 1 6 ww_devclrn $end
$var wire 1 7 ww_devpor $end
$var wire 1 8 ww_a [2] $end
$var wire 1 9 ww_a [1] $end
$var wire 1 : ww_a [0] $end
$var wire 1 ; ww_b [2] $end
$var wire 1 < ww_b [1] $end
$var wire 1 = ww_b [0] $end
$var wire 1 > ww_sel [1] $end
$var wire 1 ? ww_sel [0] $end
$var wire 1 @ ww_seleccion_ALU $end
$var wire 1 A ww_cin $end
$var wire 1 B ww_salida_final [2] $end
$var wire 1 C ww_salida_final [1] $end
$var wire 1 D ww_salida_final [0] $end
$var wire 1 E ww_cout $end
$var wire 1 F \~QUARTUS_CREATED_ADC1~_CHSEL_bus\ [4] $end
$var wire 1 G \~QUARTUS_CREATED_ADC1~_CHSEL_bus\ [3] $end
$var wire 1 H \~QUARTUS_CREATED_ADC1~_CHSEL_bus\ [2] $end
$var wire 1 I \~QUARTUS_CREATED_ADC1~_CHSEL_bus\ [1] $end
$var wire 1 J \~QUARTUS_CREATED_ADC1~_CHSEL_bus\ [0] $end
$var wire 1 K \~QUARTUS_CREATED_ADC2~_CHSEL_bus\ [4] $end
$var wire 1 L \~QUARTUS_CREATED_ADC2~_CHSEL_bus\ [3] $end
$var wire 1 M \~QUARTUS_CREATED_ADC2~_CHSEL_bus\ [2] $end
$var wire 1 N \~QUARTUS_CREATED_ADC2~_CHSEL_bus\ [1] $end
$var wire 1 O \~QUARTUS_CREATED_ADC2~_CHSEL_bus\ [0] $end
$var wire 1 P \~QUARTUS_CREATED_GND~I_combout\ $end
$var wire 1 Q \~QUARTUS_CREATED_UNVM~~busy\ $end
$var wire 1 R \~QUARTUS_CREATED_ADC1~~eoc\ $end
$var wire 1 S \~QUARTUS_CREATED_ADC2~~eoc\ $end
$var wire 1 T \salida_final[0]~output_o\ $end
$var wire 1 U \salida_final[1]~output_o\ $end
$var wire 1 V \salida_final[2]~output_o\ $end
$var wire 1 W \cout~output_o\ $end
$var wire 1 X \sel[0]~input_o\ $end
$var wire 1 Y \a[0]~input_o\ $end
$var wire 1 Z \b[0]~input_o\ $end
$var wire 1 [ \sel[1]~input_o\ $end
$var wire 1 \ \u3|salida_mux_2x1[0]~0_combout\ $end
$var wire 1 ] \u1|u1|Mux2~0_combout\ $end
$var wire 1 ^ \cin~input_o\ $end
$var wire 1 _ \u1|u2|Add0~1_cout\ $end
$var wire 1 ` \u1|u2|Add0~2_combout\ $end
$var wire 1 a \seleccion_ALU~input_o\ $end
$var wire 1 b \u3|salida_mux_2x1[0]~1_combout\ $end
$var wire 1 c \b[1]~input_o\ $end
$var wire 1 d \a[1]~input_o\ $end
$var wire 1 e \u3|salida_mux_2x1[1]~2_combout\ $end
$var wire 1 f \u1|u1|Mux1~0_combout\ $end
$var wire 1 g \u1|u2|Add0~3\ $end
$var wire 1 h \u1|u2|Add0~4_combout\ $end
$var wire 1 i \u3|salida_mux_2x1[1]~3_combout\ $end
$var wire 1 j \b[2]~input_o\ $end
$var wire 1 k \a[2]~input_o\ $end
$var wire 1 l \u3|salida_mux_2x1[2]~4_combout\ $end
$var wire 1 m \u1|u1|Mux0~0_combout\ $end
$var wire 1 n \u1|u2|Add0~5\ $end
$var wire 1 o \u1|u2|Add0~6_combout\ $end
$var wire 1 p \u3|salida_mux_2x1[2]~5_combout\ $end
$var wire 1 q \u1|u2|Add0~7\ $end
$var wire 1 r \u1|u2|Add0~8_combout\ $end
$upscope $end
$upscope $end
$enddefinitions $end
#0
$dumpvars
0'
0(
1.
0/
10
x1
12
13
14
15
16
17
1@
0A
0E
0P
zQ
zR
zS
0T
0U
0V
0W
0X
0Y
0Z
0[
0\
1]
0^
0_
1`
1a
0b
1c
0d
0e
1f
1g
1h
0i
0j
0k
0l
1m
0n
1o
0p
1q
0r
0!
0"
0#
0$
1%
0&
0,
0-
0)
0*
0+
08
09
0:
0;
1<
0=
0>
0?
0B
0C
0D
0F
0G
0H
0I
0J
0K
0L
0M
0N
0O
$end
#10000
1#
1:
1Y
0`
0g
0h
1n
0o
0q
1r
1W
1E
1(
#20000
0#
1"
0:
19
1d
0Y
1`
1g
1e
1h
1i
0h
1U
1C
1*
#30000
1#
1:
1Y
0`
0g
1h
#40000
0#
0"
1!
0:
09
18
1k
0d
0Y
1`
1g
0e
0h
1o
0i
1h
0n
0U
0o
0C
0*
#50000
1#
1:
1Y
0`
0g
0h
1n
1o
#60000
0#
1"
0:
19
1d
0Y
1`
1g
1e
1h
1i
0h
1U
1C
1*
#70000
1#
1:
1Y
0`
0g
1h
#80000
0#
0"
0!
1-
0:
09
08
1?
1X
0k
0d
0Y
1`
1g
0h
0o
0f
0n
1o
1q
0r
0W
0E
0(
#90000
1#
1:
1Y
1\
0`
0g
1h
1b
1T
1D
1+
#100000
0#
1"
0:
19
1d
0Y
0\
1`
1g
0h
1n
0o
0q
1h
0n
0b
0T
1o
1q
1r
0D
1W
0r
0+
1E
0W
1(
0E
0(
#110000
1#
1:
1Y
1\
0`
0g
0h
1n
1b
1T
0o
0q
1D
1r
1+
1W
1E
1(
#120000
0#
0"
1!
0:
09
18
1k
0d
0Y
0\
1`
1g
1h
0n
1l
1o
1p
0o
0h
0b
0T
1V
0D
1B
0+
1)
#130000
1#
1:
1Y
1\
0`
0g
1h
1b
1T
1D
1+
#140000
0#
1"
0:
19
1d
0Y
0\
1`
1g
0h
1n
1o
1h
0n
0b
0T
0o
0D
0+
#150000
1#
1:
1Y
1\
0`
0g
0h
1n
1b
1T
1o
1D
1+
#160000
0#
0"
0!
0-
1,
0:
09
08
0?
1>
1[
0X
0k
0d
0Y
1`
1g
1h
0n
0o
0\
0]
1f
0l
0m
0`
0p
1q
0b
0T
0V
0r
0D
0B
0W
0+
0)
0E
0(
#170000
1#
1:
1Y
1\
1`
1b
1T
1D
1+
#180000
0#
1"
0:
19
1d
0Y
0\
0`
0e
0h
1n
1o
0i
0b
0T
0U
0D
0C
0+
0*
#190000
1#
1:
1Y
1\
1`
1b
1T
1D
1+
#200000
0#
0"
1!
0:
09
18
1k
0d
0Y
0\
0`
1e
1h
0n
1l
0o
0q
1r
1p
1o
1q
1i
0b
0T
1U
1V
1W
0r
0D
1C
1B
1E
0W
0+
1*
1)
1(
0E
0(
#210000
1#
1:
1Y
1\
1`
1b
1T
1D
1+
#220000
0#
1"
0:
19
1d
0Y
0\
0`
0e
0h
1n
0o
0q
0i
0b
0T
0U
1r
0D
0C
1W
0+
0*
1E
1(
#230000
1#
1:
1Y
1\
1`
1b
1T
1D
1+
#240000
0#
0"
0!
1-
0:
09
08
1?
1X
0k
0d
0Y
0`
1h
0n
1o
1q
1e
0f
0h
0r
0o
1i
1U
0W
1C
0E
1*
0(
#250000
1#
1:
1Y
0\
1`
0b
0T
0D
0+
#260000
0#
1"
0:
19
1d
0Y
1\
0`
0e
1h
0i
1b
1T
0U
1D
0C
1+
0*
#270000
1#
1:
1Y
0\
1`
0b
0T
0D
0+
#280000
0#
0"
1!
0:
09
18
1k
0d
0Y
1\
0`
1e
0h
0l
1o
0p
1i
1b
1T
1U
0V
1D
1C
0B
1+
1*
0)
#290000
1#
1:
1Y
0\
1`
0b
0T
0D
0+
#300000
0#
1"
0:
19
1d
0Y
1\
0`
0e
1h
0i
1b
1T
0U
1D
0C
1+
0*
#310000
1#
1:
1Y
0\
1`
0b
0T
0D
0+
#320000
0#
0"
0!
0-
0,
0:
09
08
0?
0>
0[
0X
0k
0d
0Y
0`
0h
0o
1]
1f
1m
1o
1h
1`
#330000
1#
1:
1Y
0`
0g
0h
1n
0o
0q
1r
1W
1E
1(
#340000
0#
1"
0:
19
1d
0Y
1`
1g
1e
1h
1i
0h
1U
1C
1*
#350000
1#
1:
1Y
0`
0g
1h
#360000
0#
0"
1!
0:
09
18
1k
0d
0Y
1`
1g
0e
0h
1o
0i
1h
0n
0U
0o
0C
0*
#370000
1#
1:
1Y
0`
0g
0h
1n
1o
#380000
0#
1"
0:
19
1d
0Y
1`
1g
1e
1h
1i
0h
1U
1C
1*
#390000
1#
1:
1Y
0`
0g
1h
#400000
0#
0"
0!
1-
0:
09
08
1?
1X
0k
0d
0Y
1`
1g
0h
0o
0f
0n
1o
1q
0r
0W
0E
0(
#410000
1#
1:
1Y
1\
0`
0g
1h
1b
1T
1D
1+
#420000
0#
1"
0:
19
1d
0Y
0\
1`
1g
0h
1n
0o
0q
1h
0n
0b
0T
1o
1q
1r
0D
1W
0r
0+
1E
0W
1(
0E
0(
#430000
1#
1:
1Y
1\
0`
0g
0h
1n
1b
1T
0o
0q
1D
1r
1+
1W
1E
1(
#440000
0#
0"
1!
0:
09
18
1k
0d
0Y
0\
1`
1g
1h
0n
1l
1o
1p
0o
0h
0b
0T
1V
0D
1B
0+
1)
#450000
1#
1:
1Y
1\
0`
0g
1h
1b
1T
1D
1+
#460000
0#
1"
0:
19
1d
0Y
0\
1`
1g
0h
1n
1o
1h
0n
0b
0T
0o
0D
0+
#470000
1#
1:
1Y
1\
0`
0g
0h
1n
1b
1T
1o
1D
1+
#480000
0#
0"
0!
0-
1,
0:
09
08
0?
1>
1[
0X
0k
0d
0Y
1`
1g
1h
0n
0o
0\
0]
1f
0l
0m
0`
0p
1q
0b
0T
0V
0r
0D
0B
0W
0+
0)
0E
0(
#490000
1#
1:
1Y
1\
1`
1b
1T
1D
1+
#500000
0#
1"
0:
19
1d
0Y
0\
0`
0e
0h
1n
1o
0i
0b
0T
0U
0D
0C
0+
0*
#510000
1#
1:
1Y
1\
1`
1b
1T
1D
1+
#520000
0#
0"
1!
0:
09
18
1k
0d
0Y
0\
0`
1e
1h
0n
1l
0o
0q
1r
1p
1o
1q
1i
0b
0T
1U
1V
1W
0r
0D
1C
1B
1E
0W
0+
1*
1)
1(
0E
0(
#530000
1#
1:
1Y
1\
1`
1b
1T
1D
1+
#540000
0#
1"
0:
19
1d
0Y
0\
0`
0e
0h
1n
0o
0q
0i
0b
0T
0U
1r
0D
0C
1W
0+
0*
1E
1(
#550000
1#
1:
1Y
1\
1`
1b
1T
1D
1+
#560000
0#
0"
0!
1-
0:
09
08
1?
1X
0k
0d
0Y
0`
1h
0n
1o
1q
1e
0f
0h
0r
0o
1i
1U
0W
1C
0E
1*
0(
#570000
1#
1:
1Y
0\
1`
0b
0T
0D
0+
#580000
0#
1"
0:
19
1d
0Y
1\
0`
0e
1h
0i
1b
1T
0U
1D
0C
1+
0*
#590000
1#
1:
1Y
0\
1`
0b
0T
0D
0+
#600000
0#
0"
1!
0:
09
18
1k
0d
0Y
1\
0`
1e
0h
0l
1o
0p
1i
1b
1T
1U
0V
1D
1C
0B
1+
1*
0)
#610000
1#
1:
1Y
0\
1`
0b
0T
0D
0+
#620000
0#
1"
0:
19
1d
0Y
1\
0`
0e
1h
0i
1b
1T
0U
1D
0C
1+
0*
#630000
1#
1:
1Y
0\
1`
0b
0T
0D
0+
#640000
0#
0"
0!
0-
0,
0:
09
08
0?
0>
0[
0X
0k
0d
0Y
0`
0h
0o
1]
1f
1m
1o
1h
1`
#650000
1#
1:
1Y
0`
0g
0h
1n
0o
0q
1r
1W
1E
1(
#660000
0#
1"
0:
19
1d
0Y
1`
1g
1e
1h
1i
0h
1U
1C
1*
#670000
1#
1:
1Y
0`
0g
1h
#680000
0#
0"
1!
0:
09
18
1k
0d
0Y
1`
1g
0e
0h
1o
0i
1h
0n
0U
0o
0C
0*
#690000
1#
1:
1Y
0`
0g
0h
1n
1o
#700000
0#
1"
0:
19
1d
0Y
1`
1g
1e
1h
1i
0h
1U
1C
1*
#710000
1#
1:
1Y
0`
0g
1h
#720000
0#
0"
0!
1-
0:
09
08
1?
1X
0k
0d
0Y
1`
1g
0h
0o
0f
0n
1o
1q
0r
0W
0E
0(
#730000
1#
1:
1Y
1\
0`
0g
1h
1b
1T
1D
1+
#740000
0#
1"
0:
19
1d
0Y
0\
1`
1g
0h
1n
0o
0q
1h
0n
0b
0T
1o
1q
1r
0D
1W
0r
0+
1E
0W
1(
0E
0(
#750000
1#
1:
1Y
1\
0`
0g
0h
1n
1b
1T
0o
0q
1D
1r
1+
1W
1E
1(
#760000
0#
0"
1!
0:
09
18
1k
0d
0Y
0\
1`
1g
1h
0n
1l
1o
1p
0o
0h
0b
0T
1V
0D
1B
0+
1)
#770000
1#
1:
1Y
1\
0`
0g
1h
1b
1T
1D
1+
#780000
0#
1"
0:
19
1d
0Y
0\
1`
1g
0h
1n
1o
1h
0n
0b
0T
0o
0D
0+
#790000
1#
1:
1Y
1\
0`
0g
0h
1n
1b
1T
1o
1D
1+
#800000
0#
0"
0!
0-
1,
0:
09
08
0?
1>
1[
0X
0k
0d
0Y
1`
1g
1h
0n
0o
0\
0]
1f
0l
0m
0`
0p
1q
0b
0T
0V
0r
0D
0B
0W
0+
0)
0E
0(
#810000
1#
1:
1Y
1\
1`
1b
1T
1D
1+
#820000
0#
1"
0:
19
1d
0Y
0\
0`
0e
0h
1n
1o
0i
0b
0T
0U
0D
0C
0+
0*
#830000
1#
1:
1Y
1\
1`
1b
1T
1D
1+
#840000
0#
0"
1!
0:
09
18
1k
0d
0Y
0\
0`
1e
1h
0n
1l
0o
0q
1r
1p
1o
1q
1i
0b
0T
1U
1V
1W
0r
0D
1C
1B
1E
0W
0+
1*
1)
1(
0E
0(
#850000
1#
1:
1Y
1\
1`
1b
1T
1D
1+
#860000
0#
1"
0:
19
1d
0Y
0\
0`
0e
0h
1n
0o
0q
0i
0b
0T
0U
1r
0D
0C
1W
0+
0*
1E
1(
#870000
1#
1:
1Y
1\
1`
1b
1T
1D
1+
#880000
0#
0"
0!
1-
0:
09
08
1?
1X
0k
0d
0Y
0`
1h
0n
1o
1q
1e
0f
0h
0r
0o
1i
1U
0W
1C
0E
1*
0(
#890000
1#
1:
1Y
0\
1`
0b
0T
0D
0+
#900000
0#
1"
0:
19
1d
0Y
1\
0`
0e
1h
0i
1b
1T
0U
1D
0C
1+
0*
#910000
1#
1:
1Y
0\
1`
0b
0T
0D
0+
#920000
0#
0"
1!
0:
09
18
1k
0d
0Y
1\
0`
1e
0h
0l
1o
0p
1i
1b
1T
1U
0V
1D
1C
0B
1+
1*
0)
#930000
1#
1:
1Y
0\
1`
0b
0T
0D
0+
#940000
0#
1"
0:
19
1d
0Y
1\
0`
0e
1h
0i
1b
1T
0U
1D
0C
1+
0*
#950000
1#
1:
1Y
0\
1`
0b
0T
0D
0+
#960000
0#
0"
0!
0-
0,
0:
09
08
0?
0>
0[
0X
0k
0d
0Y
0`
0h
0o
1]
1f
1m
1o
1h
1`
#970000
1#
1:
1Y
0`
0g
0h
1n
0o
0q
1r
1W
1E
1(
#980000
0#
1"
0:
19
1d
0Y
1`
1g
1e
1h
1i
0h
1U
1C
1*
#990000
1#
1:
1Y
0`
0g
1h
