sumador_restador/simulation/qsim/sumador_restador.msim.vcd
$comment
	File created using the following command:
		vcd file sumador_restador.msim.vcd -direction
$end
$date
	Mon Feb 27 00:40:17 2023
$end
$version
	ModelSim Version 10.5b
$end
$timescale
	1ps
$end

$scope module sumador_restador_vhd_vec_tst $end
$var wire 1 ! a [2] $end
$var wire 1 " a [1] $end
$var wire 1 # a [0] $end
$var wire 1 $ b [2] $end
$var wire 1 % b [1] $end
$var wire 1 & b [0] $end
$var wire 1 ' cin $end
$var wire 1 ( cout $end
$var wire 1 ) sal [2] $end
$var wire 1 * sal [1] $end
$var wire 1 + sal [0] $end
$var wire 1 , sel [1] $end
$var wire 1 - sel [0] $end

$scope module i1 $end
$var wire 1 . gnd $end
$var wire 1 / vcc $end
$var wire 1 0 unknown $end
$var wire 1 1 devoe $end
$var wire 1 2 devclrn $end
$var wire 1 3 devpor $end
$var wire 1 4 ww_devoe $end
$var wire 1 5 ww_devclrn $end
$var wire 1 6 ww_devpor $end
$var wire 1 7 ww_a [2] $end
$var wire 1 8 ww_a [1] $end
$var wire 1 9 ww_a [0] $end
$var wire 1 : ww_b [2] $end
$var wire 1 ; ww_b [1] $end
$var wire 1 < ww_b [0] $end
$var wire 1 = ww_sel [1] $end
$var wire 1 > ww_sel [0] $end
$var wire 1 ? ww_cin $end
$var wire 1 @ ww_sal [2] $end
$var wire 1 A ww_sal [1] $end
$var wire 1 B ww_sal [0] $end
$var wire 1 C ww_cout $end
$var wire 1 D \~QUARTUS_CREATED_ADC1~_CHSEL_bus\ [4] $end
$var wire 1 E \~QUARTUS_CREATED_ADC1~_CHSEL_bus\ [3] $end
$var wire 1 F \~QUARTUS_CREATED_ADC1~_CHSEL_bus\ [2] $end
$var wire 1 G \~QUARTUS_CREATED_ADC1~_CHSEL_bus\ [1] $end
$var wire 1 H \~QUARTUS_CREATED_ADC1~_CHSEL_bus\ [0] $end
$var wire 1 I \~QUARTUS_CREATED_ADC2~_CHSEL_bus\ [4] $end
$var wire 1 J \~QUARTUS_CREATED_ADC2~_CHSEL_bus\ [3] $end
$var wire 1 K \~QUARTUS_CREATED_ADC2~_CHSEL_bus\ [2] $end
$var wire 1 L \~QUARTUS_CREATED_ADC2~_CHSEL_bus\ [1] $end
$var wire 1 M \~QUARTUS_CREATED_ADC2~_CHSEL_bus\ [0] $end
$var wire 1 N \~QUARTUS_CREATED_GND~I_combout\ $end
$var wire 1 O \~QUARTUS_CREATED_UNVM~~busy\ $end
$var wire 1 P \~QUARTUS_CREATED_ADC1~~eoc\ $end
$var wire 1 Q \~QUARTUS_CREATED_ADC2~~eoc\ $end
$var wire 1 R \sal[0]~output_o\ $end
$var wire 1 S \sal[1]~output_o\ $end
$var wire 1 T \sal[2]~output_o\ $end
$var wire 1 U \cout~output_o\ $end
$var wire 1 V \a[0]~input_o\ $end
$var wire 1 W \sel[0]~input_o\ $end
$var wire 1 X \b[0]~input_o\ $end
$var wire 1 Y \sel[1]~input_o\ $end
$var wire 1 Z \u1|Mux2~0_combout\ $end
$var wire 1 [ \cin~input_o\ $end
$var wire 1 \ \u2|Add0~1_cout\ $end
$var wire 1 ] \u2|Add0~2_combout\ $end
$var wire 1 ^ \b[1]~input_o\ $end
$var wire 1 _ \u1|Mux1~0_combout\ $end
$var wire 1 ` \a[1]~input_o\ $end
$var wire 1 a \u2|Add0~3\ $end
$var wire 1 b \u2|Add0~4_combout\ $end
$var wire 1 c \a[2]~input_o\ $end
$var wire 1 d \b[2]~input_o\ $end
$var wire 1 e \u1|Mux0~0_combout\ $end
$var wire 1 f \u2|Add0~5\ $end
$var wire 1 g \u2|Add0~6_combout\ $end
$var wire 1 h \u2|Add0~7\ $end
$var wire 1 i \u2|Add0~8_combout\ $end
$upscope $end
$upscope $end
$enddefinitions $end
#0
$dumpvars
0'
0(
0.
1/
x0
11
12
13
14
15
16
0?
0C
0N
zO
zP
zQ
0R
1S
1T
0U
0V
1W
1X
0Y
0Z
0[
0\
0]
0^
1_
0`
1a
1b
0c
0d
1e
0f
1g
1h
0i
0!
0"
0#
0$
0%
1&
0,
1-
1)
1*
0+
07
08
09
0:
0;
1<
0=
1>
1@
1A
0B
0D
0E
0F
0G
0H
0I
0J
0K
0L
0M
$end
#10000
1#
19
1V
1]
1R
1B
1+
#20000
0#
1"
09
18
1`
0V
0]
0b
1f
0S
0R
0g
0h
0A
0B
0T
1i
0+
0*
0@
1U
0)
1C
1(
#30000
1#
19
1V
1]
1R
1B
1+
#40000
0#
0"
1!
09
08
17
1c
0`
0V
0]
1b
0f
1g
1T
1S
0R
0g
1@
1A
0B
0T
0+
1*
1)
0@
0)
#50000
1#
19
1V
1]
1R
1B
1+
#60000
0#
1"
09
18
1`
0V
0]
0b
1f
0S
0R
1g
0A
0B
1T
0+
0*
1@
1)
#70000
1#
19
1V
1]
1R
1B
1+
#80000
0#
0"
0!
09
08
07
0c
0`
0V
0]
1b
0f
0g
0T
1S
0R
1g
1h
0@
1A
0B
1T
0i
0+
1*
0)
1@
0U
1)
0C
0(
#90000
1#
19
1V
1]
1R
1B
1+
#100000
0#
1"
09
18
1`
0V
0]
0b
1f
0S
0R
0g
0h
0A
0B
0T
1i
0+
0*
0@
1U
0)
1C
1(
#110000
1#
19
1V
1]
1R
1B
1+
#120000
0#
0"
1!
09
08
17
1c
0`
0V
0]
1b
0f
1g
1T
1S
0R
0g
1@
1A
0B
0T
0+
1*
1)
0@
0)
#130000
1#
19
1V
1]
1R
1B
1+
#140000
0#
1"
09
18
1`
0V
0]
0b
1f
0S
0R
1g
0A
0B
1T
0+
0*
1@
1)
#150000
1#
19
1V
1]
1R
1B
1+
#160000
0#
0"
0!
09
08
07
0c
0`
0V
0]
1b
0f
0g
0T
1S
0R
1g
1h
0@
1A
0B
1T
0i
0+
1*
0)
1@
0U
1)
0C
0(
#170000
1#
19
1V
1]
1R
1B
1+
#180000
0#
1"
09
18
1`
0V
0]
0b
1f
0S
0R
0g
0h
0A
0B
0T
1i
0+
0*
0@
1U
0)
1C
1(
#190000
1#
19
1V
1]
1R
1B
1+
#200000
0#
0"
1!
09
08
17
1c
0`
0V
0]
1b
0f
1g
1T
1S
0R
0g
1@
1A
0B
0T
0+
1*
1)
0@
0)
#210000
1#
19
1V
1]
1R
1B
1+
#220000
0#
1"
09
18
1`
0V
0]
0b
1f
0S
0R
1g
0A
0B
1T
0+
0*
1@
1)
#230000
1#
19
1V
1]
1R
1B
1+
#240000
0#
0"
0!
09
08
07
0c
0`
0V
0]
1b
0f
0g
0T
1S
0R
1g
1h
0@
1A
0B
1T
0i
0+
1*
0)
1@
0U
1)
0C
0(
#250000
1#
19
1V
1]
1R
1B
1+
#260000
0#
1"
09
18
1`
0V
0]
0b
1f
0S
0R
0g
0h
0A
0B
0T
1i
0+
0*
0@
1U
0)
1C
1(
#270000
1#
19
1V
1]
1R
1B
1+
#280000
0#
0"
1!
09
08
17
1c
0`
0V
0]
1b
0f
1g
1T
1S
0R
0g
1@
1A
0B
0T
0+
1*
1)
0@
0)
#290000
1#
19
1V
1]
1R
1B
1+
#300000
0#
1"
09
18
1`
0V
0]
0b
1f
0S
0R
1g
0A
0B
1T
0+
0*
1@
1)
#310000
1#
19
1V
1]
1R
1B
1+
#320000
0#
0"
0!
09
08
07
0c
0`
0V
0]
1b
0f
0g
0T
1S
0R
1g
1h
0@
1A
0B
1T
0i
0+
1*
0)
1@
0U
1)
0C
0(
#330000
1#
19
1V
1]
1R
1B
1+
#340000
0#
1"
09
18
1`
0V
0]
0b
1f
0S
0R
0g
0h
0A
0B
0T
1i
0+
0*
0@
1U
0)
1C
1(
#350000
1#
19
1V
1]
1R
1B
1+
#360000
0#
0"
1!
09
08
17
1c
0`
0V
0]
1b
0f
1g
1T
1S
0R
0g
1@
1A
0B
0T
0+
1*
1)
0@
0)
#370000
1#
19
1V
1]
1R
1B
1+
#380000
0#
1"
09
18
1`
0V
0]
0b
1f
0S
0R
1g
0A
0B
1T
0+
0*
1@
1)
#390000
1#
19
1V
1]
1R
1B
1+
#400000
0#
0"
0!
09
08
07
0c
0`
0V
0]
1b
0f
0g
0T
1S
0R
1g
1h
0@
1A
0B
1T
0i
0+
1*
0)
1@
0U
1)
0C
0(
#410000
1#
19
1V
1]
1R
1B
1+
#420000
0#
1"
09
18
1`
0V
0]
0b
1f
0S
0R
0g
0h
0A
0B
0T
1i
0+
0*
0@
1U
0)
1C
1(
#430000
1#
19
1V
1]
1R
1B
1+
#440000
0#
0"
1!
09
08
17
1c
0`
0V
0]
1b
0f
1g
1T
1S
0R
0g
1@
1A
0B
0T
0+
1*
1)
0@
0)
#450000
1#
19
1V
1]
1R
1B
1+
#460000
0#
1"
09
18
1`
0V
0]
0b
1f
0S
0R
1g
0A
0B
1T
0+
0*
1@
1)
#470000
1#
19
1V
1]
1R
1B
1+
#480000
0#
0"
0!
09
08
07
0c
0`
0V
0]
1b
0f
0g
0T
1S
0R
1g
1h
0@
1A
0B
1T
0i
0+
1*
0)
1@
0U
1)
0C
0(
#490000
1#
19
1V
1]
1R
1B
1+
#500000
0#
1"
09
18
1`
0V
0]
0b
1f
0S
0R
0g
0h
0A
0B
0T
1i
0+
0*
0@
1U
0)
1C
1(
#510000
1#
19
1V
1]
1R
1B
1+
#520000
0#
0"
1!
09
08
17
1c
0`
0V
0]
1b
0f
1g
1T
1S
0R
0g
1@
1A
0B
0T
0+
1*
1)
0@
0)
#530000
1#
19
1V
1]
1R
1B
1+
#540000
0#
1"
09
18
1`
0V
0]
0b
1f
0S
0R
1g
0A
0B
1T
0+
0*
1@
1)
#550000
1#
19
1V
1]
1R
1B
1+
#560000
0#
0"
0!
09
08
07
0c
0`
0V
0]
1b
0f
0g
0T
1S
0R
1g
1h
0@
1A
0B
1T
0i
0+
1*
0)
1@
0U
1)
0C
0(
#570000
1#
19
1V
1]
1R
1B
1+
#580000
0#
1"
09
18
1`
0V
0]
0b
1f
0S
0R
0g
0h
0A
0B
0T
1i
0+
0*
0@
1U
0)
1C
1(
#590000
1#
19
1V
1]
1R
1B
1+
#600000
0#
0"
1!
09
08
17
1c
0`
0V
0]
1b
0f
1g
1T
1S
0R
0g
1@
1A
0B
0T
0+
1*
1)
0@
0)
#610000
1#
19
1V
1]
1R
1B
1+
#620000
0#
1"
09
18
1`
0V
0]
0b
1f
0S
0R
1g
0A
0B
1T
0+
0*
1@
1)
#630000
1#
19
1V
1]
1R
1B
1+
#640000
0#
0"
0!
09
08
07
0c
0`
0V
0]
1b
0f
0g
0T
1S
0R
1g
1h
0@
1A
0B
1T
0i
0+
1*
0)
1@
0U
1)
0C
0(
#650000
1#
19
1V
1]
1R
1B
1+
#660000
0#
1"
09
18
1`
0V
0]
0b
1f
0S
0R
0g
0h
0A
0B
0T
1i
0+
0*
0@
1U
0)
1C
1(
#670000
1#
19
1V
1]
1R
1B
1+
#680000
0#
0"
1!
09
08
17
1c
0`
0V
0]
1b
0f
1g
1T
1S
0R
0g
1@
1A
0B
0T
0+
1*
1)
0@
0)
#690000
1#
19
1V
1]
1R
1B
1+
#700000
0#
1"
09
18
1`
0V
0]
0b
1f
0S
0R
1g
0A
0B
1T
0+
0*
1@
1)
#710000
1#
19
1V
1]
1R
1B
1+
#720000
0#
0"
0!
09
08
07
0c
0`
0V
0]
1b
0f
0g
0T
1S
0R
1g
1h
0@
1A
0B
1T
0i
0+
1*
0)
1@
0U
1)
0C
0(
#730000
1#
19
1V
1]
1R
1B
1+
#740000
0#
1"
09
18
1`
0V
0]
0b
1f
0S
0R
0g
0h
0A
0B
0T
1i
0+
0*
0@
1U
0)
1C
1(
#750000
1#
19
1V
1]
1R
1B
1+
#760000
0#
0"
1!
09
08
17
1c
0`
0V
0]
1b
0f
1g
1T
1S
0R
0g
1@
1A
0B
0T
0+
1*
1)
0@
0)
#770000
1#
19
1V
1]
1R
1B
1+
#780000
0#
1"
09
18
1`
0V
0]
0b
1f
0S
0R
1g
0A
0B
1T
0+
0*
1@
1)
#790000
1#
19
1V
1]
1R
1B
1+
#800000
0#
0"
0!
09
08
07
0c
0`
0V
0]
1b
0f
0g
0T
1S
0R
1g
1h
0@
1A
0B
1T
0i
0+
1*
0)
1@
0U
1)
0C
0(
#810000
1#
19
1V
1]
1R
1B
1+
#820000
0#
1"
09
18
1`
0V
0]
0b
1f
0S
0R
0g
0h
0A
0B
0T
1i
0+
0*
0@
1U
0)
1C
1(
#830000
1#
19
1V
1]
1R
1B
1+
#840000
0#
0"
1!
09
08
17
1c
0`
0V
0]
1b
0f
1g
1T
1S
0R
0g
1@
1A
0B
0T
0+
1*
1)
0@
0)
#850000
1#
19
1V
1]
1R
1B
1+
#860000
0#
1"
09
18
1`
0V
0]
0b
1f
0S
0R
1g
0A
0B
1T
0+
0*
1@
1)
#870000
1#
19
1V
1]
1R
1B
1+
#880000
0#
0"
0!
09
08
07
0c
0`
0V
0]
1b
0f
0g
0T
1S
0R
1g
1h
0@
1A
0B
1T
0i
0+
1*
0)
1@
0U
1)
0C
0(
#890000
1#
19
1V
1]
1R
1B
1+
#900000
0#
1"
09
18
1`
0V
0]
0b
1f
0S
0R
0g
0h
0A
0B
0T
1i
0+
0*
0@
1U
0)
1C
1(
#910000
1#
19
1V
1]
1R
1B
1+
#920000
0#
0"
1!
09
08
17
1c
0`
0V
0]
1b
0f
1g
1T
1S
0R
0g
1@
1A
0B
0T
0+
1*
1)
0@
0)
#930000
1#
19
1V
1]
1R
1B
1+
#940000
0#
1"
09
18
1`
0V
0]
0b
1f
0S
0R
1g
0A
0B
1T
0+
0*
1@
1)
#950000
1#
19
1V
1]
1R
1B
1+
#960000
0#
0"
0!
09
08
07
0c
0`
0V
0]
1b
0f
0g
0T
1S
0R
1g
1h
0@
1A
0B
1T
0i
0+
1*
0)
1@
0U
1)
0C
0(
#970000
1#
19
1V
1]
1R
1B
1+
#980000
0#
1"
09
18
1`
0V
0]
0b
1f
0S
0R
0g
0h
0A
0B
0T
1i
0+
0*
0@
1U
0)
1C
1(
#990000
1#
19
1V
1]
1R
1B
1+
