compuerta_xor/simulation/qsim/compuerta_xor.msim.vcd
$comment
	File created using the following command:
		vcd file compuerta_xor.msim.vcd -direction
$end
$date
	Fri Feb 24 18:40:13 2023
$end
$version
	ModelSim Version 10.5b
$end
$timescale
	1ps
$end

$scope module compuerta_xor_vhd_vec_tst $end
$var wire 1 ! a $end
$var wire 1 " b $end
$var wire 1 # y $end

$scope module i1 $end
$var wire 1 $ gnd $end
$var wire 1 % vcc $end
$var wire 1 & unknown $end
$var wire 1 ' devoe $end
$var wire 1 ( devclrn $end
$var wire 1 ) devpor $end
$var wire 1 * ww_devoe $end
$var wire 1 + ww_devclrn $end
$var wire 1 , ww_devpor $end
$var wire 1 - ww_a $end
$var wire 1 . ww_b $end
$var wire 1 / ww_y $end
$var wire 1 0 \~QUARTUS_CREATED_ADC1~_CHSEL_bus\ [4] $end
$var wire 1 1 \~QUARTUS_CREATED_ADC1~_CHSEL_bus\ [3] $end
$var wire 1 2 \~QUARTUS_CREATED_ADC1~_CHSEL_bus\ [2] $end
$var wire 1 3 \~QUARTUS_CREATED_ADC1~_CHSEL_bus\ [1] $end
$var wire 1 4 \~QUARTUS_CREATED_ADC1~_CHSEL_bus\ [0] $end
$var wire 1 5 \~QUARTUS_CREATED_ADC2~_CHSEL_bus\ [4] $end
$var wire 1 6 \~QUARTUS_CREATED_ADC2~_CHSEL_bus\ [3] $end
$var wire 1 7 \~QUARTUS_CREATED_ADC2~_CHSEL_bus\ [2] $end
$var wire 1 8 \~QUARTUS_CREATED_ADC2~_CHSEL_bus\ [1] $end
$var wire 1 9 \~QUARTUS_CREATED_ADC2~_CHSEL_bus\ [0] $end
$var wire 1 : \~QUARTUS_CREATED_GND~I_combout\ $end
$var wire 1 ; \~QUARTUS_CREATED_UNVM~~busy\ $end
$var wire 1 < \~QUARTUS_CREATED_ADC1~~eoc\ $end
$var wire 1 = \~QUARTUS_CREATED_ADC2~~eoc\ $end
$var wire 1 > \y~output_o\ $end
$var wire 1 ? \a~input_o\ $end
$var wire 1 @ \b~input_o\ $end
$var wire 1 A \y~0_combout\ $end
$upscope $end
$upscope $end
$enddefinitions $end
#0
$dumpvars
0!
0"
0#
0$
1%
x&
1'
1(
1)
1*
1+
1,
0-
0.
0/
0:
z;
z<
z=
0>
0?
0@
0A
00
01
02
03
04
05
06
07
08
09
$end
#10000
1"
1.
1@
1A
1>
1/
1#
#20000
0"
1!
0.
1-
1?
0@
#30000
1"
1.
1@
0A
0>
0/
0#
#40000
0"
0!
0.
0-
0?
0@
#50000
1"
1.
1@
1A
1>
1/
1#
#60000
0"
1!
0.
1-
1?
0@
#70000
1"
1.
1@
0A
0>
0/
0#
#80000
0"
0!
0.
0-
0?
0@
#90000
1"
1.
1@
1A
1>
1/
1#
#100000
0"
1!
0.
1-
1?
0@
#110000
1"
1.
1@
0A
0>
0/
0#
#120000
0"
0!
0.
0-
0?
0@
#130000
1"
1.
1@
1A
1>
1/
1#
#140000
0"
1!
0.
1-
1?
0@
#150000
1"
1.
1@
0A
0>
0/
0#
#160000
0"
0!
0.
0-
0?
0@
#170000
1"
1.
1@
1A
1>
1/
1#
#180000
0"
1!
0.
1-
1?
0@
#190000
1"
1.
1@
0A
0>
0/
0#
#200000
0"
0!
0.
0-
0?
0@
#210000
1"
1.
1@
1A
1>
1/
1#
#220000
0"
1!
0.
1-
1?
0@
#230000
1"
1.
1@
0A
0>
0/
0#
#240000
0"
0!
0.
0-
0?
0@
#250000
1"
1.
1@
1A
1>
1/
1#
#260000
0"
1!
0.
1-
1?
0@
#270000
1"
1.
1@
0A
0>
0/
0#
#280000
0"
0!
0.
0-
0?
0@
#290000
1"
1.
1@
1A
1>
1/
1#
#300000
0"
1!
0.
1-
1?
0@
#310000
1"
1.
1@
0A
0>
0/
0#
#320000
0"
0!
0.
0-
0?
0@
#330000
1"
1.
1@
1A
1>
1/
1#
#340000
0"
1!
0.
1-
1?
0@
#350000
1"
1.
1@
0A
0>
0/
0#
#360000
0"
0!
0.
0-
0?
0@
#370000
1"
1.
1@
1A
1>
1/
1#
#380000
0"
1!
0.
1-
1?
0@
#390000
1"
1.
1@
0A
0>
0/
0#
#400000
0"
0!
0.
0-
0?
0@
#410000
1"
1.
1@
1A
1>
1/
1#
#420000
0"
1!
0.
1-
1?
0@
#430000
1"
1.
1@
0A
0>
0/
0#
#440000
0"
0!
0.
0-
0?
0@
#450000
1"
1.
1@
1A
1>
1/
1#
#460000
0"
1!
0.
1-
1?
0@
#470000
1"
1.
1@
0A
0>
0/
0#
#480000
0"
0!
0.
0-
0?
0@
#490000
1"
1.
1@
1A
1>
1/
1#
#500000
0"
1!
0.
1-
1?
0@
#510000
1"
1.
1@
0A
0>
0/
0#
#520000
0"
0!
0.
0-
0?
0@
#530000
1"
1.
1@
1A
1>
1/
1#
#540000
0"
1!
0.
1-
1?
0@
#550000
1"
1.
1@
0A
0>
0/
0#
#560000
0"
0!
0.
0-
0?
0@
#570000
1"
1.
1@
1A
1>
1/
1#
#580000
0"
1!
0.
1-
1?
0@
#590000
1"
1.
1@
0A
0>
0/
0#
#600000
0"
0!
0.
0-
0?
0@
#610000
1"
1.
1@
1A
1>
1/
1#
#620000
0"
1!
0.
1-
1?
0@
#630000
1"
1.
1@
0A
0>
0/
0#
#640000
0"
0!
0.
0-
0?
0@
#650000
1"
1.
1@
1A
1>
1/
1#
#660000
0"
1!
0.
1-
1?
0@
#670000
1"
1.
1@
0A
0>
0/
0#
#680000
0"
0!
0.
0-
0?
0@
#690000
1"
1.
1@
1A
1>
1/
1#
#700000
0"
1!
0.
1-
1?
0@
#710000
1"
1.
1@
0A
0>
0/
0#
#720000
0"
0!
0.
0-
0?
0@
#730000
1"
1.
1@
1A
1>
1/
1#
#740000
0"
1!
0.
1-
1?
0@
#750000
1"
1.
1@
0A
0>
0/
0#
#760000
0"
0!
0.
0-
0?
0@
#770000
1"
1.
1@
1A
1>
1/
1#
#780000
0"
1!
0.
1-
1?
0@
#790000
1"
1.
1@
0A
0>
0/
0#
#800000
0"
0!
0.
0-
0?
0@
#810000
1"
1.
1@
1A
1>
1/
1#
#820000
0"
1!
0.
1-
1?
0@
#830000
1"
1.
1@
0A
0>
0/
0#
#840000
0"
0!
0.
0-
0?
0@
#850000
1"
1.
1@
1A
1>
1/
1#
#860000
0"
1!
0.
1-
1?
0@
#870000
1"
1.
1@
0A
0>
0/
0#
#880000
0"
0!
0.
0-
0?
0@
#890000
1"
1.
1@
1A
1>
1/
1#
#900000
0"
1!
0.
1-
1?
0@
#910000
1"
1.
1@
0A
0>
0/
0#
#920000
0"
0!
0.
0-
0?
0@
#930000
1"
1.
1@
1A
1>
1/
1#
#940000
0"
1!
0.
1-
1?
0@
#950000
1"
1.
1@
0A
0>
0/
0#
#960000
0"
0!
0.
0-
0?
0@
#970000
1"
1.
1@
1A
1>
1/
1#
#980000
0"
1!
0.
1-
1?
0@
#990000
1"
1.
1@
0A
0>
0/
0#
