siete_segmentos_decodificador/simulation/qsim/siete_segmentos_decodificador.msim.vcd
$comment
	File created using the following command:
		vcd file siete_segmentos_decodificador.msim.vcd -direction
$end
$date
	Fri Feb 24 18:16:20 2023
$end
$version
	ModelSim Version 10.5b
$end
$timescale
	1ps
$end

$scope module siete_segmentos_decodificador_vhd_vec_tst $end
$var wire 1 ! BCD [3] $end
$var wire 1 " BCD [2] $end
$var wire 1 # BCD [1] $end
$var wire 1 $ BCD [0] $end
$var wire 1 % Hex [6] $end
$var wire 1 & Hex [5] $end
$var wire 1 ' Hex [4] $end
$var wire 1 ( Hex [3] $end
$var wire 1 ) Hex [2] $end
$var wire 1 * Hex [1] $end
$var wire 1 + Hex [0] $end

$scope module i1 $end
$var wire 1 , gnd $end
$var wire 1 - vcc $end
$var wire 1 . unknown $end
$var wire 1 / devoe $end
$var wire 1 0 devclrn $end
$var wire 1 1 devpor $end
$var wire 1 2 ww_devoe $end
$var wire 1 3 ww_devclrn $end
$var wire 1 4 ww_devpor $end
$var wire 1 5 ww_BCD [3] $end
$var wire 1 6 ww_BCD [2] $end
$var wire 1 7 ww_BCD [1] $end
$var wire 1 8 ww_BCD [0] $end
$var wire 1 9 ww_Hex [6] $end
$var wire 1 : ww_Hex [5] $end
$var wire 1 ; ww_Hex [4] $end
$var wire 1 < ww_Hex [3] $end
$var wire 1 = ww_Hex [2] $end
$var wire 1 > ww_Hex [1] $end
$var wire 1 ? ww_Hex [0] $end
$var wire 1 @ \~QUARTUS_CREATED_ADC1~_CHSEL_bus\ [4] $end
$var wire 1 A \~QUARTUS_CREATED_ADC1~_CHSEL_bus\ [3] $end
$var wire 1 B \~QUARTUS_CREATED_ADC1~_CHSEL_bus\ [2] $end
$var wire 1 C \~QUARTUS_CREATED_ADC1~_CHSEL_bus\ [1] $end
$var wire 1 D \~QUARTUS_CREATED_ADC1~_CHSEL_bus\ [0] $end
$var wire 1 E \~QUARTUS_CREATED_ADC2~_CHSEL_bus\ [4] $end
$var wire 1 F \~QUARTUS_CREATED_ADC2~_CHSEL_bus\ [3] $end
$var wire 1 G \~QUARTUS_CREATED_ADC2~_CHSEL_bus\ [2] $end
$var wire 1 H \~QUARTUS_CREATED_ADC2~_CHSEL_bus\ [1] $end
$var wire 1 I \~QUARTUS_CREATED_ADC2~_CHSEL_bus\ [0] $end
$var wire 1 J \~QUARTUS_CREATED_GND~I_combout\ $end
$var wire 1 K \~QUARTUS_CREATED_UNVM~~busy\ $end
$var wire 1 L \~QUARTUS_CREATED_ADC1~~eoc\ $end
$var wire 1 M \~QUARTUS_CREATED_ADC2~~eoc\ $end
$var wire 1 N \Hex[0]~output_o\ $end
$var wire 1 O \Hex[1]~output_o\ $end
$var wire 1 P \Hex[2]~output_o\ $end
$var wire 1 Q \Hex[3]~output_o\ $end
$var wire 1 R \Hex[4]~output_o\ $end
$var wire 1 S \Hex[5]~output_o\ $end
$var wire 1 T \Hex[6]~output_o\ $end
$var wire 1 U \BCD[2]~input_o\ $end
$var wire 1 V \BCD[1]~input_o\ $end
$var wire 1 W \BCD[0]~input_o\ $end
$var wire 1 X \BCD[3]~input_o\ $end
$var wire 1 Y \Mux6~0_combout\ $end
$var wire 1 Z \Mux5~0_combout\ $end
$var wire 1 [ \Mux4~0_combout\ $end
$var wire 1 \ \Mux3~0_combout\ $end
$var wire 1 ] \Mux2~0_combout\ $end
$var wire 1 ^ \Mux1~0_combout\ $end
$var wire 1 _ \Mux0~0_combout\ $end
$var wire 1 ` \ALT_INV_Mux6~0_combout\ $end
$upscope $end
$upscope $end
$enddefinitions $end
#0
$dumpvars
0,
1-
x.
1/
10
11
12
13
14
0J
zK
zL
zM
1N
0O
0P
0Q
0R
0S
0T
0U
0V
0W
0X
0Y
0Z
0[
0\
0]
0^
0_
1`
0!
0"
0#
0$
05
06
07
08
09
0:
0;
0<
0=
0>
1?
0@
0A
0B
0C
0D
0E
0F
0G
0H
0I
0%
0&
0'
0(
0)
0*
1+
$end
#10000
1$
18
1W
1Z
1[
1\
1_
1T
1Q
1P
1O
19
1<
1=
1>
1*
1)
1(
1%
#20000
0$
1#
08
17
1V
0W
1Y
0[
0\
1]
0_
0`
0T
1R
0Q
0P
0N
09
1;
0<
0=
0?
0)
0(
1'
0%
0+
#30000
1$
18
1W
1[
0]
0R
1P
0;
1=
1)
0'
#40000
0$
0#
1"
08
07
16
1U
0V
0W
0Z
1\
1_
1T
1Q
0O
19
1<
0>
0*
1(
1%
#50000
1$
18
1W
0\
1^
0_
0T
1S
0Q
09
1:
0<
0(
1&
0%
#60000
0$
1#
08
17
1V
0W
0[
0P
0=
0)
#70000
1$
18
1W
0Y
1Z
1[
1\
0^
1`
0S
1Q
1P
1O
1N
0:
1<
1=
1>
1?
1*
1)
1(
0&
1+
#80000
0$
0#
0"
1!
08
07
06
15
1X
0U
0V
0W
1Y
0Z
0[
0\
0`
0Q
0P
0O
0N
0<
0=
0>
0?
0*
0)
0(
0+
#90000
1$
18
1W
1[
1\
1Q
1P
1<
1=
1)
1(
#100000
0$
1#
08
17
1V
0W
0Y
1Z
1]
1^
1_
1`
1T
1S
1R
1O
1N
19
1:
1;
1>
1?
1*
1'
1&
1%
1+
#110000
1$
18
1W
#120000
0$
0#
1"
08
07
16
1U
0V
0W
#130000
1$
18
1W
#140000
0$
1#
08
17
1V
0W
#150000
1$
18
1W
#160000
0$
0#
0"
0!
08
07
06
05
0X
0U
0V
0W
0Z
0[
0\
0]
0^
0_
0T
0S
0R
0Q
0P
0O
09
0:
0;
0<
0=
0>
0*
0)
0(
0'
0&
0%
#170000
1$
18
1W
1Z
1[
1\
1_
1T
1Q
1P
1O
19
1<
1=
1>
1*
1)
1(
1%
#180000
0$
1#
08
17
1V
0W
1Y
0[
0\
1]
0_
0`
0T
1R
0Q
0P
0N
09
1;
0<
0=
0?
0)
0(
1'
0%
0+
#190000
1$
18
1W
1[
0]
0R
1P
0;
1=
1)
0'
#200000
0$
0#
1"
08
07
16
1U
0V
0W
0Z
1\
1_
1T
1Q
0O
19
1<
0>
0*
1(
1%
#210000
1$
18
1W
0\
1^
0_
0T
1S
0Q
09
1:
0<
0(
1&
0%
#220000
0$
1#
08
17
1V
0W
0[
0P
0=
0)
#230000
1$
18
1W
0Y
1Z
1[
1\
0^
1`
0S
1Q
1P
1O
1N
0:
1<
1=
1>
1?
1*
1)
1(
0&
1+
#240000
0$
0#
0"
1!
08
07
06
15
1X
0U
0V
0W
1Y
0Z
0[
0\
0`
0Q
0P
0O
0N
0<
0=
0>
0?
0*
0)
0(
0+
#250000
1$
18
1W
1[
1\
1Q
1P
1<
1=
1)
1(
#260000
0$
1#
08
17
1V
0W
0Y
1Z
1]
1^
1_
1`
1T
1S
1R
1O
1N
19
1:
1;
1>
1?
1*
1'
1&
1%
1+
#270000
1$
18
1W
#280000
0$
0#
1"
08
07
16
1U
0V
0W
#290000
1$
18
1W
#300000
0$
1#
08
17
1V
0W
#310000
1$
18
1W
#320000
0$
0#
0"
0!
08
07
06
05
0X
0U
0V
0W
0Z
0[
0\
0]
0^
0_
0T
0S
0R
0Q
0P
0O
09
0:
0;
0<
0=
0>
0*
0)
0(
0'
0&
0%
#330000
1$
18
1W
1Z
1[
1\
1_
1T
1Q
1P
1O
19
1<
1=
1>
1*
1)
1(
1%
#340000
0$
1#
08
17
1V
0W
1Y
0[
0\
1]
0_
0`
0T
1R
0Q
0P
0N
09
1;
0<
0=
0?
0)
0(
1'
0%
0+
#350000
1$
18
1W
1[
0]
0R
1P
0;
1=
1)
0'
#360000
0$
0#
1"
08
07
16
1U
0V
0W
0Z
1\
1_
1T
1Q
0O
19
1<
0>
0*
1(
1%
#370000
1$
18
1W
0\
1^
0_
0T
1S
0Q
09
1:
0<
0(
1&
0%
#380000
0$
1#
08
17
1V
0W
0[
0P
0=
0)
#390000
1$
18
1W
0Y
1Z
1[
1\
0^
1`
0S
1Q
1P
1O
1N
0:
1<
1=
1>
1?
1*
1)
1(
0&
1+
#400000
0$
0#
0"
1!
08
07
06
15
1X
0U
0V
0W
1Y
0Z
0[
0\
0`
0Q
0P
0O
0N
0<
0=
0>
0?
0*
0)
0(
0+
#410000
1$
18
1W
1[
1\
1Q
1P
1<
1=
1)
1(
#420000
0$
1#
08
17
1V
0W
0Y
1Z
1]
1^
1_
1`
1T
1S
1R
1O
1N
19
1:
1;
1>
1?
1*
1'
1&
1%
1+
#430000
1$
18
1W
#440000
0$
0#
1"
08
07
16
1U
0V
0W
#450000
1$
18
1W
#460000
0$
1#
08
17
1V
0W
#470000
1$
18
1W
#480000
0$
0#
0"
0!
08
07
06
05
0X
0U
0V
0W
0Z
0[
0\
0]
0^
0_
0T
0S
0R
0Q
0P
0O
09
0:
0;
0<
0=
0>
0*
0)
0(
0'
0&
0%
#490000
1$
18
1W
1Z
1[
1\
1_
1T
1Q
1P
1O
19
1<
1=
1>
1*
1)
1(
1%
#500000
0$
1#
08
17
1V
0W
1Y
0[
0\
1]
0_
0`
0T
1R
0Q
0P
0N
09
1;
0<
0=
0?
0)
0(
1'
0%
0+
#510000
1$
18
1W
1[
0]
0R
1P
0;
1=
1)
0'
#520000
0$
0#
1"
08
07
16
1U
0V
0W
0Z
1\
1_
1T
1Q
0O
19
1<
0>
0*
1(
1%
#530000
1$
18
1W
0\
1^
0_
0T
1S
0Q
09
1:
0<
0(
1&
0%
#540000
0$
1#
08
17
1V
0W
0[
0P
0=
0)
#550000
1$
18
1W
0Y
1Z
1[
1\
0^
1`
0S
1Q
1P
1O
1N
0:
1<
1=
1>
1?
1*
1)
1(
0&
1+
#560000
0$
0#
0"
1!
08
07
06
15
1X
0U
0V
0W
1Y
0Z
0[
0\
0`
0Q
0P
0O
0N
0<
0=
0>
0?
0*
0)
0(
0+
#570000
1$
18
1W
1[
1\
1Q
1P
1<
1=
1)
1(
#580000
0$
1#
08
17
1V
0W
0Y
1Z
1]
1^
1_
1`
1T
1S
1R
1O
1N
19
1:
1;
1>
1?
1*
1'
1&
1%
1+
#590000
1$
18
1W
#600000
0$
0#
1"
08
07
16
1U
0V
0W
#610000
1$
18
1W
#620000
0$
1#
08
17
1V
0W
#630000
1$
18
1W
#640000
0$
0#
0"
0!
08
07
06
05
0X
0U
0V
0W
0Z
0[
0\
0]
0^
0_
0T
0S
0R
0Q
0P
0O
09
0:
0;
0<
0=
0>
0*
0)
0(
0'
0&
0%
#650000
1$
18
1W
1Z
1[
1\
1_
1T
1Q
1P
1O
19
1<
1=
1>
1*
1)
1(
1%
#660000
0$
1#
08
17
1V
0W
1Y
0[
0\
1]
0_
0`
0T
1R
0Q
0P
0N
09
1;
0<
0=
0?
0)
0(
1'
0%
0+
#670000
1$
18
1W
1[
0]
0R
1P
0;
1=
1)
0'
#680000
0$
0#
1"
08
07
16
1U
0V
0W
0Z
1\
1_
1T
1Q
0O
19
1<
0>
0*
1(
1%
#690000
1$
18
1W
0\
1^
0_
0T
1S
0Q
09
1:
0<
0(
1&
0%
#700000
0$
1#
08
17
1V
0W
0[
0P
0=
0)
#710000
1$
18
1W
0Y
1Z
1[
1\
0^
1`
0S
1Q
1P
1O
1N
0:
1<
1=
1>
1?
1*
1)
1(
0&
1+
#720000
0$
0#
0"
1!
08
07
06
15
1X
0U
0V
0W
1Y
0Z
0[
0\
0`
0Q
0P
0O
0N
0<
0=
0>
0?
0*
0)
0(
0+
#730000
1$
18
1W
1[
1\
1Q
1P
1<
1=
1)
1(
#740000
0$
1#
08
17
1V
0W
0Y
1Z
1]
1^
1_
1`
1T
1S
1R
1O
1N
19
1:
1;
1>
1?
1*
1'
1&
1%
1+
#750000
1$
18
1W
#760000
0$
0#
1"
08
07
16
1U
0V
0W
#770000
1$
18
1W
#780000
0$
1#
08
17
1V
0W
#790000
1$
18
1W
#800000
0$
0#
0"
0!
08
07
06
05
0X
0U
0V
0W
0Z
0[
0\
0]
0^
0_
0T
0S
0R
0Q
0P
0O
09
0:
0;
0<
0=
0>
0*
0)
0(
0'
0&
0%
#810000
1$
18
1W
1Z
1[
1\
1_
1T
1Q
1P
1O
19
1<
1=
1>
1*
1)
1(
1%
#820000
0$
1#
08
17
1V
0W
1Y
0[
0\
1]
0_
0`
0T
1R
0Q
0P
0N
09
1;
0<
0=
0?
0)
0(
1'
0%
0+
#830000
1$
18
1W
1[
0]
0R
1P
0;
1=
1)
0'
#840000
0$
0#
1"
08
07
16
1U
0V
0W
0Z
1\
1_
1T
1Q
0O
19
1<
0>
0*
1(
1%
#850000
1$
18
1W
0\
1^
0_
0T
1S
0Q
09
1:
0<
0(
1&
0%
#860000
0$
1#
08
17
1V
0W
0[
0P
0=
0)
#870000
1$
18
1W
0Y
1Z
1[
1\
0^
1`
0S
1Q
1P
1O
1N
0:
1<
1=
1>
1?
1*
1)
1(
0&
1+
#880000
0$
0#
0"
1!
08
07
06
15
1X
0U
0V
0W
1Y
0Z
0[
0\
0`
0Q
0P
0O
0N
0<
0=
0>
0?
0*
0)
0(
0+
#890000
1$
18
1W
1[
1\
1Q
1P
1<
1=
1)
1(
#900000
0$
1#
08
17
1V
0W
0Y
1Z
1]
1^
1_
1`
1T
1S
1R
1O
1N
19
1:
1;
1>
1?
1*
1'
1&
1%
1+
#910000
1$
18
1W
#920000
0$
0#
1"
08
07
16
1U
0V
0W
#930000
1$
18
1W
#940000
0$
1#
08
17
1V
0W
#950000
1$
18
1W
#960000
0$
0#
0"
0!
08
07
06
05
0X
0U
0V
0W
0Z
0[
0\
0]
0^
0_
0T
0S
0R
0Q
0P
0O
09
0:
0;
0<
0=
0>
0*
0)
0(
0'
0&
0%
#970000
1$
18
1W
1Z
1[
1\
1_
1T
1Q
1P
1O
19
1<
1=
1>
1*
1)
1(
1%
#980000
0$
1#
08
17
1V
0W
1Y
0[
0\
1]
0_
0`
0T
1R
0Q
0P
0N
09
1;
0<
0=
0?
0)
0(
1'
0%
0+
#990000
1$
18
1W
1[
0]
0R
1P
0;
1=
1)
0'
