Practica 4/Actividad4_1/simulation/qsim/PruebaPWM.msim.vcd
$comment
	File created using the following command:
		vcd file PruebaPWM.msim.vcd -direction
$end
$date
	Wed Mar 22 14:21:54 2023
$end
$version
	ModelSim Version 10.5b
$end
$timescale
	1ps
$end

$scope module pruebapwm_vhd_vec_tst $end
$var wire 1 ! clk $end
$var wire 1 " duty [3] $end
$var wire 1 # duty [2] $end
$var wire 1 $ duty [1] $end
$var wire 1 % duty [0] $end
$var wire 1 & snl $end

$scope module i1 $end
$var wire 1 ' gnd $end
$var wire 1 ( vcc $end
$var wire 1 ) unknown $end
$var wire 1 * devoe $end
$var wire 1 + devclrn $end
$var wire 1 , devpor $end
$var wire 1 - ww_devoe $end
$var wire 1 . ww_devclrn $end
$var wire 1 / ww_devpor $end
$var wire 1 0 ww_clk $end
$var wire 1 1 ww_duty [3] $end
$var wire 1 2 ww_duty [2] $end
$var wire 1 3 ww_duty [1] $end
$var wire 1 4 ww_duty [0] $end
$var wire 1 5 ww_snl $end
$var wire 1 6 \~QUARTUS_CREATED_ADC1~_CHSEL_bus\ [4] $end
$var wire 1 7 \~QUARTUS_CREATED_ADC1~_CHSEL_bus\ [3] $end
$var wire 1 8 \~QUARTUS_CREATED_ADC1~_CHSEL_bus\ [2] $end
$var wire 1 9 \~QUARTUS_CREATED_ADC1~_CHSEL_bus\ [1] $end
$var wire 1 : \~QUARTUS_CREATED_ADC1~_CHSEL_bus\ [0] $end
$var wire 1 ; \~QUARTUS_CREATED_ADC2~_CHSEL_bus\ [4] $end
$var wire 1 < \~QUARTUS_CREATED_ADC2~_CHSEL_bus\ [3] $end
$var wire 1 = \~QUARTUS_CREATED_ADC2~_CHSEL_bus\ [2] $end
$var wire 1 > \~QUARTUS_CREATED_ADC2~_CHSEL_bus\ [1] $end
$var wire 1 ? \~QUARTUS_CREATED_ADC2~_CHSEL_bus\ [0] $end
$var wire 1 @ \clk~inputclkctrl_INCLK_bus\ [3] $end
$var wire 1 A \clk~inputclkctrl_INCLK_bus\ [2] $end
$var wire 1 B \clk~inputclkctrl_INCLK_bus\ [1] $end
$var wire 1 C \clk~inputclkctrl_INCLK_bus\ [0] $end
$var wire 1 D \~QUARTUS_CREATED_GND~I_combout\ $end
$var wire 1 E \~QUARTUS_CREATED_UNVM~~busy\ $end
$var wire 1 F \~QUARTUS_CREATED_ADC1~~eoc\ $end
$var wire 1 G \~QUARTUS_CREATED_ADC2~~eoc\ $end
$var wire 1 H \snl~output_o\ $end
$var wire 1 I \clk~input_o\ $end
$var wire 1 J \clk~inputclkctrl_outclk\ $end
$var wire 1 K \duty[3]~input_o\ $end
$var wire 1 L \conteo[0]~3_combout\ $end
$var wire 1 M \conteo[1]~2_combout\ $end
$var wire 1 N \conteo[2]~1_combout\ $end
$var wire 1 O \conteo[3]~0_combout\ $end
$var wire 1 P \duty[2]~input_o\ $end
$var wire 1 Q \duty[1]~input_o\ $end
$var wire 1 R \duty[0]~input_o\ $end
$var wire 1 S \LessThan0~0_combout\ $end
$var wire 1 T \LessThan0~1_combout\ $end
$var wire 1 U \LessThan0~2_combout\ $end
$var wire 1 V \snl~reg0_q\ $end
$var wire 1 W conteo [3] $end
$var wire 1 X conteo [2] $end
$var wire 1 Y conteo [1] $end
$var wire 1 Z conteo [0] $end
$upscope $end
$upscope $end
$enddefinitions $end
#0
$dumpvars
0!
0&
0'
1(
x)
1*
1+
1,
1-
1.
1/
00
05
0D
zE
zF
zG
0H
0I
0J
0K
1L
0M
0N
0O
1P
1Q
1R
0S
0T
1U
0V
0"
1#
1$
1%
01
12
13
14
0W
0X
0Y
0Z
1@
1A
1B
0C
06
07
08
09
0:
0;
0<
0=
0>
0?
$end
#5000
1!
10
1I
1C
1J
1Z
1V
1H
0L
1M
15
1&
#10000
0!
00
0I
0C
0J
#15000
1!
10
1I
1C
1J
0Z
1Y
1L
#20000
0!
00
0I
0C
0J
#25000
1!
10
1I
1C
1J
1Z
0L
0M
1N
#30000
0!
00
0I
0C
0J
#35000
1!
10
1I
1C
1J
0Z
0Y
1X
1L
#40000
0!
00
0I
0C
0J
#45000
1!
10
1I
1C
1J
1Z
0L
1M
#50000
0!
00
0I
0C
0J
#55000
1!
10
1I
1C
1J
0Z
1Y
1L
#60000
0!
00
0I
0C
0J
#65000
1!
10
1I
1C
1J
1Z
0L
0M
0N
1O
#70000
0!
00
0I
0C
0J
#75000
1!
10
1I
1C
1J
0Z
0Y
0X
1W
0U
1L
#80000
0!
00
0I
0C
0J
#85000
1!
10
1I
1C
1J
1Z
0V
0H
0L
1M
05
0&
#90000
0!
00
0I
0C
0J
#95000
1!
10
1I
1C
1J
0Z
1Y
1L
#100000
0!
00
0I
0C
0J
#105000
1!
10
1I
1C
1J
1Z
0L
0M
1N
#110000
0!
00
0I
0C
0J
#115000
1!
10
1I
1C
1J
0Z
0Y
1X
1L
#120000
0!
00
0I
0C
0J
#125000
1!
10
1I
1C
1J
1Z
0L
1M
#130000
0!
00
0I
0C
0J
#135000
1!
10
1I
1C
1J
0Z
1Y
1L
#140000
0!
00
0I
0C
0J
#145000
1!
10
1I
1C
1J
1Z
0L
0M
0N
0O
#150000
0!
00
0I
0C
0J
#155000
1!
10
1I
1C
1J
0Z
0Y
0X
0W
1U
1L
#160000
0!
00
0I
0C
0J
#165000
1!
10
1I
1C
1J
1Z
1V
1H
0L
1M
15
1&
#170000
0!
00
0I
0C
0J
#175000
1!
10
1I
1C
1J
0Z
1Y
1L
#180000
0!
00
0I
0C
0J
#185000
1!
10
1I
1C
1J
1Z
0L
0M
1N
#190000
0!
00
0I
0C
0J
#195000
1!
10
1I
1C
1J
0Z
0Y
1X
1L
#200000
0!
00
0I
0C
0J
#205000
1!
10
1I
1C
1J
1Z
0L
1M
#210000
0!
00
0I
0C
0J
#215000
1!
10
1I
1C
1J
0Z
1Y
1L
#220000
0!
00
0I
0C
0J
#225000
1!
10
1I
1C
1J
1Z
0L
0M
0N
1O
#230000
0!
00
0I
0C
0J
#235000
1!
10
1I
1C
1J
0Z
0Y
0X
1W
0U
1L
#240000
0!
00
0I
0C
0J
#245000
1!
10
1I
1C
1J
1Z
0V
0H
0L
1M
05
0&
#250000
0!
00
0I
0C
0J
#255000
1!
10
1I
1C
1J
0Z
1Y
1L
#260000
0!
00
0I
0C
0J
#265000
1!
10
1I
1C
1J
1Z
0L
0M
1N
#270000
0!
00
0I
0C
0J
#275000
1!
10
1I
1C
1J
0Z
0Y
1X
1L
#280000
0!
00
0I
0C
0J
#285000
1!
10
1I
1C
1J
1Z
0L
1M
#290000
0!
00
0I
0C
0J
#295000
1!
10
1I
1C
1J
0Z
1Y
1L
#300000
0!
00
0I
0C
0J
#305000
1!
10
1I
1C
1J
1Z
0L
0M
0N
0O
#310000
0!
00
0I
0C
0J
#315000
1!
10
1I
1C
1J
0Z
0Y
0X
0W
1U
1L
#320000
0!
00
0I
0C
0J
#325000
1!
10
1I
1C
1J
1Z
1V
1H
0L
1M
15
1&
#330000
0!
00
0I
0C
0J
#335000
1!
10
1I
1C
1J
0Z
1Y
1L
#340000
0!
00
0I
0C
0J
#345000
1!
10
1I
1C
1J
1Z
0L
0M
1N
#350000
0!
00
0I
0C
0J
#355000
1!
10
1I
1C
1J
0Z
0Y
1X
1L
#360000
0!
00
0I
0C
0J
#365000
1!
10
1I
1C
1J
1Z
0L
1M
#370000
0!
00
0I
0C
0J
#375000
1!
10
1I
1C
1J
0Z
1Y
1L
#380000
0!
00
0I
0C
0J
#385000
1!
10
1I
1C
1J
1Z
0L
0M
0N
1O
#390000
0!
00
0I
0C
0J
#395000
1!
10
1I
1C
1J
0Z
0Y
0X
1W
0U
1L
#400000
0!
00
0I
0C
0J
#405000
1!
10
1I
1C
1J
1Z
0V
0H
0L
1M
05
0&
#410000
0!
00
0I
0C
0J
#415000
1!
10
1I
1C
1J
0Z
1Y
1L
#420000
0!
00
0I
0C
0J
#425000
1!
10
1I
1C
1J
1Z
0L
0M
1N
#430000
0!
00
0I
0C
0J
#435000
1!
10
1I
1C
1J
0Z
0Y
1X
1L
#440000
0!
00
0I
0C
0J
#445000
1!
10
1I
1C
1J
1Z
0L
1M
#450000
0!
00
0I
0C
0J
#455000
1!
10
1I
1C
1J
0Z
1Y
1L
#460000
0!
00
0I
0C
0J
#465000
1!
10
1I
1C
1J
1Z
0L
0M
0N
0O
#470000
0!
00
0I
0C
0J
#475000
1!
10
1I
1C
1J
0Z
0Y
0X
0W
1U
1L
#480000
0!
00
0I
0C
0J
#485000
1!
10
1I
1C
1J
1Z
1V
1H
0L
1M
15
1&
#490000
0!
00
0I
0C
0J
#495000
1!
10
1I
1C
1J
0Z
1Y
1L
#500000
0!
00
0I
0C
0J
#505000
1!
10
1I
1C
1J
1Z
0L
0M
1N
#510000
0!
00
0I
0C
0J
#515000
1!
10
1I
1C
1J
0Z
0Y
1X
1L
#520000
0!
00
0I
0C
0J
#525000
1!
10
1I
1C
1J
1Z
0L
1M
#530000
0!
00
0I
0C
0J
#535000
1!
10
1I
1C
1J
0Z
1Y
1L
#540000
0!
00
0I
0C
0J
#545000
1!
10
1I
1C
1J
1Z
0L
0M
0N
1O
#550000
0!
00
0I
0C
0J
#555000
1!
10
1I
1C
1J
0Z
0Y
0X
1W
0U
1L
#560000
0!
00
0I
0C
0J
#565000
1!
10
1I
1C
1J
1Z
0V
0H
0L
1M
05
0&
#570000
0!
00
0I
0C
0J
#575000
1!
10
1I
1C
1J
0Z
1Y
1L
#580000
0!
00
0I
0C
0J
#585000
1!
10
1I
1C
1J
1Z
0L
0M
1N
#590000
0!
00
0I
0C
0J
#595000
1!
10
1I
1C
1J
0Z
0Y
1X
1L
#600000
0!
00
0I
0C
0J
#605000
1!
10
1I
1C
1J
1Z
0L
1M
#610000
0!
00
0I
0C
0J
#615000
1!
10
1I
1C
1J
0Z
1Y
1L
#620000
0!
00
0I
0C
0J
#625000
1!
10
1I
1C
1J
1Z
0L
0M
0N
0O
#630000
0!
00
0I
0C
0J
#635000
1!
10
1I
1C
1J
0Z
0Y
0X
0W
1U
1L
#640000
0!
00
0I
0C
0J
#645000
1!
10
1I
1C
1J
1Z
1V
1H
0L
1M
15
1&
#650000
0!
00
0I
0C
0J
#655000
1!
10
1I
1C
1J
0Z
1Y
1L
#660000
0!
00
0I
0C
0J
#665000
1!
10
1I
1C
1J
1Z
0L
0M
1N
#670000
0!
00
0I
0C
0J
#675000
1!
10
1I
1C
1J
0Z
0Y
1X
1L
#680000
0!
00
0I
0C
0J
#685000
1!
10
1I
1C
1J
1Z
0L
1M
#690000
0!
00
0I
0C
0J
#695000
1!
10
1I
1C
1J
0Z
1Y
1L
#700000
0!
00
0I
0C
0J
#705000
1!
10
1I
1C
1J
1Z
0L
0M
0N
1O
#710000
0!
00
0I
0C
0J
#715000
1!
10
1I
1C
1J
0Z
0Y
0X
1W
0U
1L
#720000
0!
00
0I
0C
0J
#725000
1!
10
1I
1C
1J
1Z
0V
0H
0L
1M
05
0&
#730000
0!
00
0I
0C
0J
#735000
1!
10
1I
1C
1J
0Z
1Y
1L
#740000
0!
00
0I
0C
0J
#745000
1!
10
1I
1C
1J
1Z
0L
0M
1N
#750000
0!
00
0I
0C
0J
#755000
1!
10
1I
1C
1J
0Z
0Y
1X
1L
#760000
0!
00
0I
0C
0J
#765000
1!
10
1I
1C
1J
1Z
0L
1M
#770000
0!
00
0I
0C
0J
#775000
1!
10
1I
1C
1J
0Z
1Y
1L
#780000
0!
00
0I
0C
0J
#785000
1!
10
1I
1C
1J
1Z
0L
0M
0N
0O
#790000
0!
00
0I
0C
0J
#795000
1!
10
1I
1C
1J
0Z
0Y
0X
0W
1U
1L
#800000
0!
00
0I
0C
0J
#805000
1!
10
1I
1C
1J
1Z
1V
1H
0L
1M
15
1&
#810000
0!
00
0I
0C
0J
#815000
1!
10
1I
1C
1J
0Z
1Y
1L
#820000
0!
00
0I
0C
0J
#825000
1!
10
1I
1C
1J
1Z
0L
0M
1N
#830000
0!
00
0I
0C
0J
#835000
1!
10
1I
1C
1J
0Z
0Y
1X
1L
#840000
0!
00
0I
0C
0J
#845000
1!
10
1I
1C
1J
1Z
0L
1M
#850000
0!
00
0I
0C
0J
#855000
1!
10
1I
1C
1J
0Z
1Y
1L
#860000
0!
00
0I
0C
0J
#865000
1!
10
1I
1C
1J
1Z
0L
0M
0N
1O
#870000
0!
00
0I
0C
0J
#875000
1!
10
1I
1C
1J
0Z
0Y
0X
1W
0U
1L
#880000
0!
00
0I
0C
0J
#885000
1!
10
1I
1C
1J
1Z
0V
0H
0L
1M
05
0&
#890000
0!
00
0I
0C
0J
#895000
1!
10
1I
1C
1J
0Z
1Y
1L
#900000
0!
00
0I
0C
0J
#905000
1!
10
1I
1C
1J
1Z
0L
0M
1N
#910000
0!
00
0I
0C
0J
#915000
1!
10
1I
1C
1J
0Z
0Y
1X
1L
#920000
0!
00
0I
0C
0J
#925000
1!
10
1I
1C
1J
1Z
0L
1M
#930000
0!
00
0I
0C
0J
#935000
1!
10
1I
1C
1J
0Z
1Y
1L
#940000
0!
00
0I
0C
0J
#945000
1!
10
1I
1C
1J
1Z
0L
0M
0N
0O
#950000
0!
00
0I
0C
0J
#955000
1!
10
1I
1C
1J
0Z
0Y
0X
0W
1U
1L
#960000
0!
00
0I
0C
0J
#965000
1!
10
1I
1C
1J
1Z
1V
1H
0L
1M
15
1&
#970000
0!
00
0I
0C
0J
#975000
1!
10
1I
1C
1J
0Z
1Y
1L
#980000
0!
00
0I
0C
0J
#985000
1!
10
1I
1C
1J
1Z
0L
0M
1N
#990000
0!
00
0I
0C
0J
#995000
1!
10
1I
1C
1J
0Z
0Y
1X
1L
